%YAML 1.1
%TAG !u! tag:unity3d.com,2011:
--- !u!74 &7400000
AnimationClip:
  m_ObjectHideFlags: 0
  m_CorrespondingSourceObject: {fileID: 0}
  m_PrefabInstance: {fileID: 0}
  m_PrefabAsset: {fileID: 0}
  m_Name: AN_Glow_Ball_Trail
  serializedVersion: 6
  m_Legacy: 0
  m_Compressed: 0
  m_UseHighQualityCurve: 1
  m_RotationCurves: []
  m_CompressedRotationCurves: []
  m_EulerCurves: []
  m_PositionCurves:
  - curve:
      serializedVersion: 2
      m_Curve:
      - serializedVersion: 3
        time: 0
        value: {x: 0, y: 0, z: 0}
        inSlope: {x: 0, y: -5.0190096, z: 0}
        outSlope: {x: 0, y: -5.0190096, z: 0}
        tangentMode: 0
        weightedMode: 0
        inWeight: {x: 0.33333334, y: 0.33333334, z: 0.33333334}
        outWeight: {x: 0.33333334, y: 0.44761458, z: 0.33333334}
      - serializedVersion: 3
        time: 0.93333334
        value: {x: -3.8398046, y: -2.9904542, z: 0}
        inSlope: {x: -6.72543, y: -0.8776675, z: 0}
        outSlope: {x: -6.72543, y: -0.8776675, z: 0}
        tangentMode: 0
        weightedMode: 0
        inWeight: {x: 0.33333334, y: 0.33333334, z: 0.33333334}
        outWeight: {x: 0.59842706, y: 0.33333334, z: 0.33333334}
      - serializedVersion: 3
        time: 1.2833333
        value: {x: -5.9086432, y: -2.9, z: -0}
        inSlope: {x: -4.883131, y: 1.4664674, z: 0}
        outSlope: {x: -4.883131, y: 1.4664674, z: 0}
        tangentMode: 0
        weightedMode: 0
        inWeight: {x: 0.33333334, y: 0.33333334, z: 0.33333334}
        outWeight: {x: 0.33333334, y: 0.78568846, z: 0.33333334}
      - serializedVersion: 3
        time: 1.6
        value: {x: -7.0440397, y: -2.1348593, z: -0}
        inSlope: {x: -2.1131256, y: 3.2380698, z: 0}
        outSlope: {x: -2.1131256, y: 3.2380698, z: 0}
        tangentMode: 0
        weightedMode: 0
        inWeight: {x: 0.33333334, y: 0.33333334, z: 0.33333334}
        outWeight: {x: 0.5217944, y: 0.33333334, z: 0.33333334}
      - serializedVersion: 3
        time: 1.9833333
        value: {x: -7.2004795, y: -0.6434627, z: -0}
        inSlope: {x: 1.8946637, y: 4.355666, z: 0}
        outSlope: {x: 1.8946637, y: 4.355666, z: 0}
        tangentMode: 0
        weightedMode: 0
        inWeight: {x: 0.33333334, y: 0.33333334, z: 0.33333334}
        outWeight: {x: 0.33333334, y: 0.33333334, z: 0.33333334}
      - serializedVersion: 3
        time: 2.6166666
        value: {x: -1.9321173, y: 2.081515, z: -0}
        inSlope: {x: 16.373928, y: 3.737813, z: 0}
        outSlope: {x: 16.373928, y: 3.737813, z: 0}
        tangentMode: 0
        weightedMode: 0
        inWeight: {x: 0.50555986, y: 0.33333334, z: 0.33333334}
        outWeight: {x: 0.21391077, y: 0.33333334, z: 0.33333334}
      - serializedVersion: 3
        time: 2.6666667
        value: {x: -1.1275631, y: 2.2639978, z: -0}
        inSlope: {x: 15.799676, y: 3.558271, z: 0}
        outSlope: {x: 15.799676, y: 3.558271, z: 0}
        tangentMode: 0
        weightedMode: 0
        inWeight: {x: 0.33333334, y: 0.33333334, z: 0.33333334}
        outWeight: {x: 0.33333334, y: 0.33333334, z: 0.33333334}
      - serializedVersion: 3
        time: 3.1833334
        value: {x: 4.969295, y: 3.4216664, z: 0}
        inSlope: {x: 6.8995824, y: 0.5824748, z: 0}
        outSlope: {x: 6.8995824, y: 0.5824748, z: 0}
        tangentMode: 0
        weightedMode: 0
        inWeight: {x: 0.33333334, y: 0.33333334, z: 0.33333334}
        outWeight: {x: 0.33333334, y: 0.33333334, z: 0.33333334}
      - serializedVersion: 3
        time: 3.2
        value: {x: 5.081153, y: 3.4302938, z: 0}
        inSlope: {x: 6.522428, y: 0.45246145, z: 0}
        outSlope: {x: 6.522428, y: 0.45246145, z: 0}
        tangentMode: 0
        weightedMode: 0
        inWeight: {x: 0.33333334, y: 0.33333334, z: 0.33333334}
        outWeight: {x: 0.64725393, y: 0.33333334, z: 0.33333334}
      - serializedVersion: 3
        time: 3.4666667
        value: {x: 6.418787, y: 3.2471285, z: 0}
        inSlope: {x: 3.5996754, y: -1.9169198, z: 0}
        outSlope: {x: 3.5996754, y: -1.9169198, z: 0}
        tangentMode: 0
        weightedMode: 0
        inWeight: {x: 0.33333334, y: 1, z: 0.33333334}
        outWeight: {x: 0.33333334, y: 0.33333334, z: 0.33333334}
      - serializedVersion: 3
        time: 3.6666667
        value: {x: 6.94984, y: 2.7720075, z: 0}
        inSlope: {x: 1.7613951, y: -2.8013065, z: 0}
        outSlope: {x: 1.7613951, y: -2.8013065, z: 0}
        tangentMode: 0
        weightedMode: 0
        inWeight: {x: 0.33333334, y: 0.33333334, z: 0.33333334}
        outWeight: {x: 0.33333334, y: 0.33333334, z: 0.33333334}
      - serializedVersion: 3
        time: 3.9
        value: {x: 7.1473103, y: 2.0219371, z: 0}
        inSlope: {x: 0, y: -3.5829744, z: 0}
        outSlope: {x: 0, y: -3.5829744, z: 0}
        tangentMode: 0
        weightedMode: 0
        inWeight: {x: 0.33333334, y: 0.33333334, z: 0.33333334}
        outWeight: {x: 0.33333334, y: 0.33333334, z: 0.33333334}
      - serializedVersion: 3
        time: 4.6
        value: {x: 5.2016535, y: -0.88265723, z: 0}
        inSlope: {x: -5.417632, y: -4.311833, z: 0}
        outSlope: {x: -5.417632, y: -4.311833, z: 0}
        tangentMode: 0
        weightedMode: 0
        inWeight: {x: 0.33333334, y: 0.33333334, z: 0.33333334}
        outWeight: {x: 0.33333334, y: 0.33333334, z: 0.33333334}
      - serializedVersion: 3
        time: 4.633333
        value: {x: 5.0171137, y: -1.0259707, z: 0}
        inSlope: {x: -5.654454, y: -4.2860723, z: 0}
        outSlope: {x: -5.654454, y: -4.2860723, z: 0}
        tangentMode: 0
        weightedMode: 0
        inWeight: {x: 0.33333334, y: 0.33333334, z: 0.33333334}
        outWeight: {x: 0.509858, y: 0.33333334, z: 0.33333334}
      - serializedVersion: 3
        time: 5.516667
        value: {x: 0.7986381, y: -3.91, z: -0}
        inSlope: {x: -3.8684597, y: -1.6004137, z: 0}
        outSlope: {x: -3.8684597, y: -1.6004137, z: 0}
        tangentMode: 0
        weightedMode: 0
        inWeight: {x: 0.33333334, y: 0.33333334, z: 0.33333334}
        outWeight: {x: 0.33333334, y: 0.50376916, z: 0.33333334}
      - serializedVersion: 3
        time: 6.4166665
        value: {x: -1.7986348, y: -3.5813782, z: 0}
        inSlope: {x: -1.8738303, y: 1.8637251, z: 0}
        outSlope: {x: -1.8738303, y: 1.8637251, z: 0}
        tangentMode: 0
        weightedMode: 0
        inWeight: {x: 0.33333334, y: 0.33333334, z: 0.33333334}
        outWeight: {x: 0.33333334, y: 0.33333334, z: 0.33333334}
      - serializedVersion: 3
        time: 6.4333334
        value: {x: -1.8295437, y: -3.55, z: 0}
        inSlope: {x: -1.835227, y: 1.9014536, z: 0}
        outSlope: {x: -1.835227, y: 1.9014536, z: 0}
        tangentMode: 0
        weightedMode: 0
        inWeight: {x: 0.33333334, y: 0.33333334, z: 0.33333334}
        outWeight: {x: 0.33333334, y: 0.28615656, z: 0.33333334}
      - serializedVersion: 3
        time: 6.45
        value: {x: -1.8598082, y: -3.5181851, z: 0}
        inSlope: {x: -1.7965645, y: 1.9162945, z: 0}
        outSlope: {x: -1.7965645, y: 1.9162945, z: 0}
        tangentMode: 0
        weightedMode: 0
        inWeight: {x: 0.33333334, y: 0.33333334, z: 0.33333334}
        outWeight: {x: 0.2247971, y: 0.33333334, z: 0.33333334}
      - serializedVersion: 3
        time: 8.65
        value: {x: 0, y: 0, z: 0}
        inSlope: {x: 0, y: 0, z: 0}
        outSlope: {x: 0, y: 0, z: 0}
        tangentMode: 0
        weightedMode: 0
        inWeight: {x: 0.33333334, y: 0.33333334, z: 0.33333334}
        outWeight: {x: 0.33333334, y: 0.33333334, z: 0.33333334}
      m_PreInfinity: 2
      m_PostInfinity: 2
      m_RotationOrder: 4
    path: 
  m_ScaleCurves: []
  m_FloatCurves: []
  m_PPtrCurves: []
  m_SampleRate: 60
  m_WrapMode: 0
  m_Bounds:
    m_Center: {x: 0, y: 0, z: 0}
    m_Extent: {x: 0, y: 0, z: 0}
  m_ClipBindingConstant:
    genericBindings:
    - serializedVersion: 2
      path: 0
      attribute: 1
      script: {fileID: 0}
      typeID: 4
      customType: 0
      isPPtrCurve: 0
    pptrCurveMapping: []
  m_AnimationClipSettings:
    serializedVersion: 2
    m_AdditiveReferencePoseClip: {fileID: 0}
    m_AdditiveReferencePoseTime: 0
    m_StartTime: 0
    m_StopTime: 8.65
    m_OrientationOffsetY: 0
    m_Level: 0
    m_CycleOffset: 0
    m_HasAdditiveReferencePose: 0
    m_LoopTime: 0
    m_LoopBlend: 0
    m_LoopBlendOrientation: 0
    m_LoopBlendPositionY: 0
    m_LoopBlendPositionXZ: 0
    m_KeepOriginalOrientation: 0
    m_KeepOriginalPositionY: 1
    m_KeepOriginalPositionXZ: 0
    m_HeightFromFeet: 0
    m_Mirror: 0
  m_EditorCurves:
  - curve:
      serializedVersion: 2
      m_Curve:
      - serializedVersion: 3
        time: 0
        value: 0
        inSlope: 0
        outSlope: 0
        tangentMode: 136
        weightedMode: 0
        inWeight: 0.33333334
        outWeight: 0.33333334
      - serializedVersion: 3
        time: 0.93333334
        value: -3.8398046
        inSlope: -6.72543
        outSlope: -6.72543
        tangentMode: 0
        weightedMode: 0
        inWeight: 0.33333334
        outWeight: 0.59842706
      - serializedVersion: 3
        time: 1.6
        value: -7.0440397
        inSlope: -2.1131256
        outSlope: -2.1131256
        tangentMode: 0
        weightedMode: 0
        inWeight: 0.33333334
        outWeight: 0.5217944
      - serializedVersion: 3
        time: 2.6166666
        value: -1.9321173
        inSlope: 16.373928
        outSlope: 16.373928
        tangentMode: 0
        weightedMode: 0
        inWeight: 0.50555986
        outWeight: 0.21391077
      - serializedVersion: 3
        time: 3.2
        value: 5.081153
        inSlope: 6.522428
        outSlope: 6.522428
        tangentMode: 0
        weightedMode: 0
        inWeight: 0.33333334
        outWeight: 0.64725393
      - serializedVersion: 3
        time: 3.9
        value: 7.1473103
        inSlope: 0
        outSlope: 0
        tangentMode: 0
        weightedMode: 0
        inWeight: 0.33333334
        outWeight: 0.33333334
      - serializedVersion: 3
        time: 4.633333
        value: 5.0171137
        inSlope: -5.654454
        outSlope: -5.654454
        tangentMode: 0
        weightedMode: 0
        inWeight: 0.33333334
        outWeight: 0.509858
      - serializedVersion: 3
        time: 6.45
        value: -1.8598082
        inSlope: -1.7965645
        outSlope: -1.7965645
        tangentMode: 0
        weightedMode: 0
        inWeight: 0.33333334
        outWeight: 0.2247971
      - serializedVersion: 3
        time: 8.65
        value: 0
        inSlope: 0
        outSlope: 0
        tangentMode: 136
        weightedMode: 0
        inWeight: 0.33333334
        outWeight: 0.33333334
      m_PreInfinity: 2
      m_PostInfinity: 2
      m_RotationOrder: 4
    attribute: m_LocalPosition.x
    path: 
    classID: 4
    script: {fileID: 0}
  - curve:
      serializedVersion: 2
      m_Curve:
      - serializedVersion: 3
        time: 0
        value: 0
        inSlope: -5.0190096
        outSlope: -5.0190096
        tangentMode: 0
        weightedMode: 0
        inWeight: 0.33333334
        outWeight: 0.44761458
      - serializedVersion: 3
        time: 1.2833333
        value: -2.9
        inSlope: 1.4664674
        outSlope: 1.4664674
        tangentMode: 0
        weightedMode: 0
        inWeight: 0.33333334
        outWeight: 0.78568846
      - serializedVersion: 3
        time: 3.4666667
        value: 3.2471285
        inSlope: -1.9169198
        outSlope: -1.9169198
        tangentMode: 0
        weightedMode: 0
        inWeight: 1
        outWeight: 0.33333334
      - serializedVersion: 3
        time: 5.516667
        value: -3.91
        inSlope: -1.6004137
        outSlope: -1.6004137
        tangentMode: 0
        weightedMode: 0
        inWeight: 0.33333334
        outWeight: 0.50376916
      - serializedVersion: 3
        time: 6.4333334
        value: -3.55
        inSlope: 1.9014536
        outSlope: 1.9014536
        tangentMode: 0
        weightedMode: 0
        inWeight: 0.33333334
        outWeight: 0.28615656
      - serializedVersion: 3
        time: 8.65
        value: 0
        inSlope: 0
        outSlope: 0
        tangentMode: 136
        weightedMode: 0
        inWeight: 0.33333334
        outWeight: 0.33333334
      m_PreInfinity: 2
      m_PostInfinity: 2
      m_RotationOrder: 4
    attribute: m_LocalPosition.y
    path: 
    classID: 4
    script: {fileID: 0}
  - curve:
      serializedVersion: 2
      m_Curve:
      - serializedVersion: 3
        time: 0
        value: 0
        inSlope: 0
        outSlope: 0
        tangentMode: 136
        weightedMode: 0
        inWeight: 0.33333334
        outWeight: 0.33333334
      - serializedVersion: 3
        time: 1.2833333
        value: -0
        inSlope: 0
        outSlope: 0
        tangentMode: 136
        weightedMode: 0
        inWeight: 0.33333334
        outWeight: 0.33333334
      - serializedVersion: 3
        time: 1.9833333
        value: -0
        inSlope: 0
        outSlope: 0
        tangentMode: 136
        weightedMode: 0
        inWeight: 0.33333334
        outWeight: 0.33333334
      - serializedVersion: 3
        time: 2.6666667
        value: -0
        inSlope: 0
        outSlope: 0
        tangentMode: 136
        weightedMode: 0
        inWeight: 0.33333334
        outWeight: 0.33333334
      - serializedVersion: 3
        time: 3.1833334
        value: 0
        inSlope: 0
        outSlope: 0
        tangentMode: 136
        weightedMode: 0
        inWeight: 0.33333334
        outWeight: 0.33333334
      - serializedVersion: 3
        time: 3.6666667
        value: 0
        inSlope: 0
        outSlope: 0
        tangentMode: 136
        weightedMode: 0
        inWeight: 0.33333334
        outWeight: 0.33333334
      - serializedVersion: 3
        time: 4.6
        value: 0
        inSlope: 0
        outSlope: 0
        tangentMode: 136
        weightedMode: 0
        inWeight: 0.33333334
        outWeight: 0.33333334
      - serializedVersion: 3
        time: 5.516667
        value: -0
        inSlope: 0
        outSlope: 0
        tangentMode: 136
        weightedMode: 0
        inWeight: 0.33333334
        outWeight: 0.33333334
      - serializedVersion: 3
        time: 6.4166665
        value: 0
        inSlope: 0
        outSlope: 0
        tangentMode: 136
        weightedMode: 0
        inWeight: 0.33333334
        outWeight: 0.33333334
      - serializedVersion: 3
        time: 8.65
        value: 0
        inSlope: 0
        outSlope: 0
        tangentMode: 136
        weightedMode: 0
        inWeight: 0.33333334
        outWeight: 0.33333334
      m_PreInfinity: 2
      m_PostInfinity: 2
      m_RotationOrder: 4
    attribute: m_LocalPosition.z
    path: 
    classID: 4
    script: {fileID: 0}
  m_EulerEditorCurves: []
  m_HasGenericRootTransform: 1
  m_HasMotionFloatCurves: 0
  m_Events: []
